Library\Bee\artifacts\movedfrom\Unity.2D.Animation.Editor.ref.dll_8540127166753071301.movedfrom
Library\Bee\artifacts\movedfrom\Unity.2D.Animation.Runtime.ref.dll_5724008130207245974.movedfrom
Library\Bee\artifacts\movedfrom\Unity.2D.Animation.Triangle.Runtime.ref.dll_17903118484747357354.movedfrom
Library\Bee\artifacts\movedfrom\Unity.2D.Common.Editor.ref.dll_5485535302908153416.movedfrom
Library\Bee\artifacts\movedfrom\Unity.2D.Common.Runtime.ref.dll_17822817306688496483.movedfrom
Library\Bee\artifacts\movedfrom\Unity.2D.IK.Editor.ref.dll_3834440027814318561.movedfrom
Library\Bee\artifacts\movedfrom\Unity.2D.IK.Runtime.ref.dll_10326884895279556026.movedfrom
Library\Bee\artifacts\movedfrom\Unity.2D.Path.Editor.ref.dll_18293621713758164190.movedfrom
Library\Bee\artifacts\movedfrom\Unity.2D.PixelPerfect.Editor.ref.dll_17653877819488432764.movedfrom
Library\Bee\artifacts\movedfrom\Unity.2D.PixelPerfect.ref.dll_10629414309035877509.movedfrom
Library\Bee\artifacts\movedfrom\Unity.2D.Psdimporter.Editor.ref.dll_7952960808566583702.movedfrom
Library\Bee\artifacts\movedfrom\Unity.2D.Sprite.Editor.ref.dll_7818677736438628686.movedfrom
Library\Bee\artifacts\movedfrom\Unity.2D.SpriteShape.Editor.ref.dll_15123813592530648493.movedfrom
Library\Bee\artifacts\movedfrom\Unity.2D.SpriteShape.Runtime.ref.dll_7049024564869621550.movedfrom
Library\Bee\artifacts\movedfrom\Unity.2D.Tilemap.Editor.ref.dll_14072021331937363979.movedfrom
Library\Bee\artifacts\movedfrom\Unity.InternalAPIEditorBridge.001.ref.dll_2736110237338719928.movedfrom
Library\Bee\artifacts\movedfrom\Unity.InternalAPIEngineBridge.001.ref.dll_1761846909945855485.movedfrom
Library\Bee\artifacts\movedfrom\Unity.Mathematics.Editor.ref.dll_6142065247344853801.movedfrom
Library\Bee\artifacts\movedfrom\Unity.Mathematics.ref.dll_7412445722425142536.movedfrom
Library\Bee\artifacts\movedfrom\Unity.PlasticSCM.Editor.ref.dll_11914477213132117968.movedfrom
Library\Bee\artifacts\movedfrom\Unity.Rider.Editor.ref.dll_15747089688779514197.movedfrom
Library\Bee\artifacts\movedfrom\Unity.TextMeshPro.Editor.ref.dll_15040393372921687916.movedfrom
Library\Bee\artifacts\movedfrom\Unity.TextMeshPro.ref.dll_185380129151195285.movedfrom
Library\Bee\artifacts\movedfrom\Unity.Timeline.Editor.ref.dll_1726717475373165132.movedfrom
Library\Bee\artifacts\movedfrom\Unity.Timeline.ref.dll_1655330610069254069.movedfrom
Library\Bee\artifacts\movedfrom\Unity.VSCode.Editor.ref.dll_12575882034941869331.movedfrom
Library\Bee\artifacts\movedfrom\Unity.VisualStudio.Editor.ref.dll_1143958139099682663.movedfrom
Library\Bee\artifacts\movedfrom\UnityEditor.UI.ref.dll_104955431402218779.movedfrom
Library\Bee\artifacts\movedfrom\UnityEngine.UI.ref.dll_13680447769613716870.movedfrom
Library\Bee\artifacts\movedfrom\UnityEditor.CoreModule.dll_1979936624234163452.movedfrom
Library\Bee\artifacts\movedfrom\UnityEditor.DeviceSimulatorModule.dll_7121645028083094917.movedfrom
Library\Bee\artifacts\movedfrom\UnityEditor.dll_13189503267806850009.movedfrom
Library\Bee\artifacts\movedfrom\UnityEditor.GraphViewModule.dll_11514355703814303242.movedfrom
Library\Bee\artifacts\movedfrom\UnityEditor.PackageManagerUIModule.dll_5858598290543605592.movedfrom
Library\Bee\artifacts\movedfrom\UnityEditor.QuickSearchModule.dll_2840441843927522028.movedfrom
Library\Bee\artifacts\movedfrom\UnityEditor.SceneTemplateModule.dll_9588226375686926061.movedfrom
Library\Bee\artifacts\movedfrom\UnityEditor.UIBuilderModule.dll_17605664537528280894.movedfrom
Library\Bee\artifacts\movedfrom\UnityEditor.UIElementsModule.dll_4727169671488385720.movedfrom
Library\Bee\artifacts\movedfrom\UnityEditor.UIElementsSamplesModule.dll_6598637977026888245.movedfrom
Library\Bee\artifacts\movedfrom\UnityEditor.UIServiceModule.dll_3262281790823855960.movedfrom
Library\Bee\artifacts\movedfrom\UnityEditor.UnityConnectModule.dll_12097810484617714098.movedfrom
Library\Bee\artifacts\movedfrom\UnityEngine.AccessibilityModule.dll_13237667745032558218.movedfrom
Library\Bee\artifacts\movedfrom\UnityEngine.AIModule.dll_914291521596388304.movedfrom
Library\Bee\artifacts\movedfrom\UnityEngine.AndroidJNIModule.dll_13826948712753013134.movedfrom
Library\Bee\artifacts\movedfrom\UnityEngine.AnimationModule.dll_7949048688724476592.movedfrom
Library\Bee\artifacts\movedfrom\UnityEngine.ARModule.dll_14277251184195850905.movedfrom
Library\Bee\artifacts\movedfrom\UnityEngine.AssetBundleModule.dll_7733940326361681886.movedfrom
Library\Bee\artifacts\movedfrom\UnityEngine.AudioModule.dll_2575280524837140386.movedfrom
Library\Bee\artifacts\movedfrom\UnityEngine.ClothModule.dll_9990559543773566598.movedfrom
Library\Bee\artifacts\movedfrom\UnityEngine.CoreModule.dll_4511191966776088615.movedfrom
Library\Bee\artifacts\movedfrom\UnityEngine.CrashReportingModule.dll_14034530601841363487.movedfrom
Library\Bee\artifacts\movedfrom\UnityEngine.DirectorModule.dll_7883224319283066884.movedfrom
Library\Bee\artifacts\movedfrom\UnityEngine.dll_16838622760995305662.movedfrom
Library\Bee\artifacts\movedfrom\UnityEngine.DSPGraphModule.dll_8266418868104677669.movedfrom
Library\Bee\artifacts\movedfrom\UnityEngine.GameCenterModule.dll_16875122714408456831.movedfrom
Library\Bee\artifacts\movedfrom\UnityEngine.GIModule.dll_11884014636759407594.movedfrom
Library\Bee\artifacts\movedfrom\UnityEngine.GridModule.dll_2021013557241277982.movedfrom
Library\Bee\artifacts\movedfrom\UnityEngine.HotReloadModule.dll_17264953450302021170.movedfrom
Library\Bee\artifacts\movedfrom\UnityEngine.ImageConversionModule.dll_15308837452713663229.movedfrom
Library\Bee\artifacts\movedfrom\UnityEngine.IMGUIModule.dll_6637421177509235587.movedfrom
Library\Bee\artifacts\movedfrom\UnityEngine.InputLegacyModule.dll_18201743053466437071.movedfrom
Library\Bee\artifacts\movedfrom\UnityEngine.InputModule.dll_9958307249692499014.movedfrom
Library\Bee\artifacts\movedfrom\UnityEngine.JSONSerializeModule.dll_1715077514206590740.movedfrom
Library\Bee\artifacts\movedfrom\UnityEngine.LocalizationModule.dll_7335605070784257905.movedfrom
Library\Bee\artifacts\movedfrom\UnityEngine.ParticleSystemModule.dll_1573713975473608109.movedfrom
Library\Bee\artifacts\movedfrom\UnityEngine.PerformanceReportingModule.dll_12590114274369885158.movedfrom
Library\Bee\artifacts\movedfrom\UnityEngine.Physics2DModule.dll_13472133023536380485.movedfrom
Library\Bee\artifacts\movedfrom\UnityEngine.PhysicsModule.dll_7671704883418499763.movedfrom
Library\Bee\artifacts\movedfrom\UnityEngine.ProfilerModule.dll_11505870176213008145.movedfrom
Library\Bee\artifacts\movedfrom\UnityEngine.RuntimeInitializeOnLoadManagerInitializerModule.dll_15933097416378512654.movedfrom
Library\Bee\artifacts\movedfrom\UnityEngine.ScreenCaptureModule.dll_3581728871859839862.movedfrom
Library\Bee\artifacts\movedfrom\UnityEngine.SharedInternalsModule.dll_6378549953163138637.movedfrom
Library\Bee\artifacts\movedfrom\UnityEngine.SpriteMaskModule.dll_15230308913873201145.movedfrom
Library\Bee\artifacts\movedfrom\UnityEngine.SpriteShapeModule.dll_9562733117668427752.movedfrom
Library\Bee\artifacts\movedfrom\UnityEngine.StreamingModule.dll_2514590767582591470.movedfrom
Library\Bee\artifacts\movedfrom\UnityEngine.SubstanceModule.dll_18415415981973157884.movedfrom
Library\Bee\artifacts\movedfrom\UnityEngine.SubsystemsModule.dll_4470477549413634060.movedfrom
Library\Bee\artifacts\movedfrom\UnityEngine.TerrainModule.dll_9565041292737008545.movedfrom
Library\Bee\artifacts\movedfrom\UnityEngine.TerrainPhysicsModule.dll_1608239547247693882.movedfrom
Library\Bee\artifacts\movedfrom\UnityEngine.TextCoreModule.dll_441821889151952916.movedfrom
Library\Bee\artifacts\movedfrom\UnityEngine.TextRenderingModule.dll_6553948541296763755.movedfrom
Library\Bee\artifacts\movedfrom\UnityEngine.TilemapModule.dll_2574442575297852586.movedfrom
Library\Bee\artifacts\movedfrom\UnityEngine.TLSModule.dll_8228106792442394311.movedfrom
Library\Bee\artifacts\movedfrom\UnityEngine.UIElementsModule.dll_4776266473479130115.movedfrom
Library\Bee\artifacts\movedfrom\UnityEngine.UIElementsNativeModule.dll_11225117275479107450.movedfrom
Library\Bee\artifacts\movedfrom\UnityEngine.UIModule.dll_586547091387349372.movedfrom
Library\Bee\artifacts\movedfrom\UnityEngine.UmbraModule.dll_11426168913974321941.movedfrom
Library\Bee\artifacts\movedfrom\UnityEngine.UNETModule.dll_15078404609793314208.movedfrom
Library\Bee\artifacts\movedfrom\UnityEngine.UnityAnalyticsModule.dll_3852377923425363881.movedfrom
Library\Bee\artifacts\movedfrom\UnityEngine.UnityConnectModule.dll_10755601520552221277.movedfrom
Library\Bee\artifacts\movedfrom\UnityEngine.UnityCurlModule.dll_11632044517712524445.movedfrom
Library\Bee\artifacts\movedfrom\UnityEngine.UnityTestProtocolModule.dll_1681470186388084619.movedfrom
Library\Bee\artifacts\movedfrom\UnityEngine.UnityWebRequestAssetBundleModule.dll_902207710952399162.movedfrom
Library\Bee\artifacts\movedfrom\UnityEngine.UnityWebRequestAudioModule.dll_2789247800507833982.movedfrom
Library\Bee\artifacts\movedfrom\UnityEngine.UnityWebRequestModule.dll_16578579499565069692.movedfrom
Library\Bee\artifacts\movedfrom\UnityEngine.UnityWebRequestTextureModule.dll_14454257133424447507.movedfrom
Library\Bee\artifacts\movedfrom\UnityEngine.UnityWebRequestWWWModule.dll_5149783437492987727.movedfrom
Library\Bee\artifacts\movedfrom\UnityEngine.VehiclesModule.dll_16512958481184081823.movedfrom
Library\Bee\artifacts\movedfrom\UnityEngine.VFXModule.dll_17514133875938254900.movedfrom
Library\Bee\artifacts\movedfrom\UnityEngine.VideoModule.dll_5244090373096624967.movedfrom
Library\Bee\artifacts\movedfrom\UnityEngine.VRModule.dll_6554421902992539380.movedfrom
Library\Bee\artifacts\movedfrom\UnityEngine.WindModule.dll_13036184078716458640.movedfrom
Library\Bee\artifacts\movedfrom\UnityEngine.XRModule.dll_10210996274713545810.movedfrom