Library\Bee\artifacts\movedfrom\UnityEngine.UI.ref.dll_13252603631421698135.movedfrom
Library\Bee\artifacts\movedfrom\UnityEngine.AccessibilityModule.dll_9834739479645598990.movedfrom
Library\Bee\artifacts\movedfrom\UnityEngine.AIModule.dll_11385764968356531724.movedfrom
Library\Bee\artifacts\movedfrom\UnityEngine.AndroidJNIModule.dll_17437705512489851338.movedfrom
Library\Bee\artifacts\movedfrom\UnityEngine.AnimationModule.dll_13542177237993594932.movedfrom
Library\Bee\artifacts\movedfrom\UnityEngine.ARModule.dll_6301980557246442709.movedfrom
Library\Bee\artifacts\movedfrom\UnityEngine.AssetBundleModule.dll_9520669182494770658.movedfrom
Library\Bee\artifacts\movedfrom\UnityEngine.AudioModule.dll_17844410079360930854.movedfrom
Library\Bee\artifacts\movedfrom\UnityEngine.ClothModule.dll_6812945024587805450.movedfrom
Library\Bee\artifacts\movedfrom\UnityEngine.CoreModule.dll_2615882139984695779.movedfrom
Library\Bee\artifacts\movedfrom\UnityEngine.CrashReportingModule.dll_10009067817745559899.movedfrom
Library\Bee\artifacts\movedfrom\UnityEngine.DirectorModule.dll_16273818637327646912.movedfrom
Library\Bee\artifacts\movedfrom\UnityEngine.dll_6160992170422850114.movedfrom
Library\Bee\artifacts\movedfrom\UnityEngine.DSPGraphModule.dll_16657013186149257697.movedfrom
Library\Bee\artifacts\movedfrom\UnityEngine.GameCenterModule.dll_2039135440435743419.movedfrom
Library\Bee\artifacts\movedfrom\UnityEngine.GIModule.dll_3908744009809999398.movedfrom
Library\Bee\artifacts\movedfrom\UnityEngine.GridModule.dll_125703730449885146.movedfrom
Library\Bee\artifacts\movedfrom\UnityEngine.HotReloadModule.dll_4411337925861587894.movedfrom
Library\Bee\artifacts\movedfrom\UnityEngine.ImageConversionModule.dll_5888476628941910529.movedfrom
Library\Bee\artifacts\movedfrom\UnityEngine.IMGUIModule.dll_3459806658323474439.movedfrom
Library\Bee\artifacts\movedfrom\UnityEngine.InputLegacyModule.dll_1541727835889974227.movedfrom
Library\Bee\artifacts\movedfrom\UnityEngine.InputModule.dll_6780692730506737866.movedfrom
Library\Bee\artifacts\movedfrom\UnityEngine.JSONSerializeModule.dll_16758893322529183128.movedfrom
Library\Bee\artifacts\movedfrom\UnityEngine.LocalizationModule.dll_1492985066529355565.movedfrom
Library\Bee\artifacts\movedfrom\UnityEngine.ParticleSystemModule.dll_15994995265087356137.movedfrom
Library\Bee\artifacts\movedfrom\UnityEngine.PerformanceReportingModule.dll_6120009881868028322.movedfrom
Library\Bee\artifacts\movedfrom\UnityEngine.Physics2DModule.dll_618517499095947209.movedfrom
Library\Bee\artifacts\movedfrom\UnityEngine.PhysicsModule.dll_15450172742774005687.movedfrom
Library\Bee\artifacts\movedfrom\UnityEngine.ProfilerModule.dll_1449720420548036557.movedfrom
Library\Bee\artifacts\movedfrom\UnityEngine.RuntimeInitializeOnLoadManagerInitializerModule.dll_14624866631670078098.movedfrom
Library\Bee\artifacts\movedfrom\UnityEngine.ScreenCaptureModule.dll_178800606472880634.movedfrom
Library\Bee\artifacts\movedfrom\UnityEngine.SharedInternalsModule.dll_15404933203100937553.movedfrom
Library\Bee\artifacts\movedfrom\UnityEngine.SpriteMaskModule.dll_394321639900487733.movedfrom
Library\Bee\artifacts\movedfrom\UnityEngine.SpriteShapeModule.dll_11349461973801516524.movedfrom
Library\Bee\artifacts\movedfrom\UnityEngine.StreamingModule.dll_8107719316851709810.movedfrom
Library\Bee\artifacts\movedfrom\UnityEngine.SubstanceModule.dll_5561800457532724608.movedfrom
Library\Bee\artifacts\movedfrom\UnityEngine.SubsystemsModule.dll_8081234349150472264.movedfrom
Library\Bee\artifacts\movedfrom\UnityEngine.TerrainModule.dll_17343509152092514469.movedfrom
Library\Bee\artifacts\movedfrom\UnityEngine.TerrainPhysicsModule.dll_16029520836861441910.movedfrom
Library\Bee\artifacts\movedfrom\UnityEngine.TextCoreModule.dll_8832416207196532944.movedfrom
Library\Bee\artifacts\movedfrom\UnityEngine.TextRenderingModule.dll_3151020275909804527.movedfrom
Library\Bee\artifacts\movedfrom\UnityEngine.TilemapModule.dll_10352910434653358510.movedfrom
Library\Bee\artifacts\movedfrom\UnityEngine.TLSModule.dll_4240971942117288651.movedfrom
Library\Bee\artifacts\movedfrom\UnityEngine.UIElementsModule.dll_8387023273215968319.movedfrom
Library\Bee\artifacts\movedfrom\UnityEngine.UIElementsNativeModule.dll_12517597603816672822.movedfrom
Library\Bee\artifacts\movedfrom\UnityEngine.UIModule.dll_11058020538147492792.movedfrom
Library\Bee\artifacts\movedfrom\UnityEngine.UmbraModule.dll_8248554394788560793.movedfrom
Library\Bee\artifacts\movedfrom\UnityEngine.UNETModule.dll_13183094783001921372.movedfrom
Library\Bee\artifacts\movedfrom\UnityEngine.UnityAnalyticsModule.dll_18273659213039111909.movedfrom
Library\Bee\artifacts\movedfrom\UnityEngine.UnityConnectModule.dll_4912981516297318937.movedfrom
Library\Bee\artifacts\movedfrom\UnityEngine.UnityCurlModule.dll_17225173066981642785.movedfrom
Library\Bee\artifacts\movedfrom\UnityEngine.UnityTestProtocolModule.dll_3332938975966213903.movedfrom
Library\Bee\artifacts\movedfrom\UnityEngine.UnityWebRequestAssetBundleModule.dll_15698590604674127222.movedfrom
Library\Bee\artifacts\movedfrom\UnityEngine.UnityWebRequestAudioModule.dll_14765887481715528762.movedfrom
Library\Bee\artifacts\movedfrom\UnityEngine.UnityWebRequestModule.dll_7158218675793316992.movedfrom
Library\Bee\artifacts\movedfrom\UnityEngine.UnityWebRequestTextureModule.dll_6609002202361845071.movedfrom
Library\Bee\artifacts\movedfrom\UnityEngine.UnityWebRequestWWWModule.dll_3495677155796958603.movedfrom
Library\Bee\artifacts\movedfrom\UnityEngine.VehiclesModule.dll_6456808725519110235.movedfrom
Library\Bee\artifacts\movedfrom\UnityEngine.VFXModule.dll_13526999025613149240.movedfrom
Library\Bee\artifacts\movedfrom\UnityEngine.VideoModule.dll_2066475853910863819.movedfrom
Library\Bee\artifacts\movedfrom\UnityEngine.VRModule.dll_17025895349752682800.movedfrom
Library\Bee\artifacts\movedfrom\UnityEngine.WindModule.dll_11140874251925065804.movedfrom
Library\Bee\artifacts\movedfrom\UnityEngine.XRModule.dll_2235725647764137614.movedfrom